{
  "page": 1,
  "per_page": 10,
  "photos": [
    {
      "id": 9794706,
      "width": 3080,
      "height": 3762,
      "url": "https://www.pexels.com/photo/artificial-skull-reflecting-in-mirror-leaning-against-wall-9794706/",
      "photographer": "Lisa",
      "photographer_url": "https://www.pexels.com/@fotios-photos",
      "photographer_id": 26735,
      "avg_color": "#A0A2A1",
      "src": {
        "original": "https://images.pexels.com/photos/9794706/pexels-photo-9794706.jpeg",
        "large2x": "https://images.pexels.com/photos/9794706/pexels-photo-9794706.jpeg?auto=compress&cs=tinysrgb&dpr=2&h=650&w=940",
        "large": "https://images.pexels.com/photos/9794706/pexels-photo-9794706.jpeg?auto=compress&cs=tinysrgb&h=650&w=940",
        "medium": "https://images.pexels.com/photos/9794706/pexels-photo-9794706.jpeg?auto=compress&cs=tinysrgb&h=350",
        "small": "https://images.pexels.com/photos/9794706/pexels-photo-9794706.jpeg?auto=compress&cs=tinysrgb&h=130",
        "portrait": "https://images.pexels.com/photos/9794706/pexels-photo-9794706.jpeg?auto=compress&cs=tinysrgb&fit=crop&h=1200&w=800",
        "landscape": "https://images.pexels.com/photos/9794706/pexels-photo-9794706.jpeg?auto=compress&cs=tinysrgb&fit=crop&h=627&w=1200",
        "tiny": "https://images.pexels.com/photos/9794706/pexels-photo-9794706.jpeg?auto=compress&cs=tinysrgb&dpr=1&fit=crop&h=200&w=280"
      },
      "liked": false
    },
    {
      "id": 9828293,
      "width": 3024,
      "height": 4032,
      "url": "https://www.pexels.com/photo/black-porsche-911-parked-in-front-of-white-concrete-building-9828293/",
      "photographer": "Sonya Livshits",
      "photographer_url": "https://www.pexels.com/@sonya-livshits-113472440",
      "photographer_id": 113472440,
      "avg_color": "#6B8095",
      "src": {
        "original": "https://images.pexels.com/photos/9828293/pexels-photo-9828293.jpeg",
        "large2x": "https://images.pexels.com/photos/9828293/pexels-photo-9828293.jpeg?auto=compress&cs=tinysrgb&dpr=2&h=650&w=940",
        "large": "https://images.pexels.com/photos/9828293/pexels-photo-9828293.jpeg?auto=compress&cs=tinysrgb&h=650&w=940",
        "medium": "https://images.pexels.com/photos/9828293/pexels-photo-9828293.jpeg?auto=compress&cs=tinysrgb&h=350",
        "small": "https://images.pexels.com/photos/9828293/pexels-photo-9828293.jpeg?auto=compress&cs=tinysrgb&h=130",
        "portrait": "https://images.pexels.com/photos/9828293/pexels-photo-9828293.jpeg?auto=compress&cs=tinysrgb&fit=crop&h=1200&w=800",
        "landscape": "https://images.pexels.com/photos/9828293/pexels-photo-9828293.jpeg?auto=compress&cs=tinysrgb&fit=crop&h=627&w=1200",
        "tiny": "https://images.pexels.com/photos/9828293/pexels-photo-9828293.jpeg?auto=compress&cs=tinysrgb&dpr=1&fit=crop&h=200&w=280"
      },
      "liked": false
    },
    {
      "id": 9781588,
      "width": 4160,
      "height": 6240,
      "url": "https://www.pexels.com/photo/blue-fabric-with-red-string-9781588/",
      "photographer": "Mathias P.R. Reding",
      "photographer_url": "https://www.pexels.com/@matreding",
      "photographer_id": 2848684,
      "avg_color": "#9CA9B2",
      "src": {
        "original": "https://images.pexels.com/photos/9781588/pexels-photo-9781588.jpeg",
        "large2x": "https://images.pexels.com/photos/9781588/pexels-photo-9781588.jpeg?auto=compress&cs=tinysrgb&dpr=2&h=650&w=940",
        "large": "https://images.pexels.com/photos/9781588/pexels-photo-9781588.jpeg?auto=compress&cs=tinysrgb&h=650&w=940",
        "medium": "https://images.pexels.com/photos/9781588/pexels-photo-9781588.jpeg?auto=compress&cs=tinysrgb&h=350",
        "small": "https://images.pexels.com/photos/9781588/pexels-photo-9781588.jpeg?auto=compress&cs=tinysrgb&h=130",
        "portrait": "https://images.pexels.com/photos/9781588/pexels-photo-9781588.jpeg?auto=compress&cs=tinysrgb&fit=crop&h=1200&w=800",
        "landscape": "https://images.pexels.com/photos/9781588/pexels-photo-9781588.jpeg?auto=compress&cs=tinysrgb&fit=crop&h=627&w=1200",
        "tiny": "https://images.pexels.com/photos/9781588/pexels-photo-9781588.jpeg?auto=compress&cs=tinysrgb&dpr=1&fit=crop&h=200&w=280"
      },
      "liked": false
    },
    {
      "id": 9750382,
      "width": 4160,
      "height": 6240,
      "url": "https://www.pexels.com/photo/man-standing-on-the-hill-and-having-his-head-tied-with-a-red-crewel-9750382/",
      "photographer": "Алексей Камкинов",
      "photographer_url": "https://www.pexels.com/@86000285",
      "photographer_id": 86000285,
      "avg_color": "#403F3A",
      "src": {
        "original": "https://images.pexels.com/photos/9750382/pexels-photo-9750382.jpeg",
        "large2x": "https://images.pexels.com/photos/9750382/pexels-photo-9750382.jpeg?auto=compress&cs=tinysrgb&dpr=2&h=650&w=940",
        "large": "https://images.pexels.com/photos/9750382/pexels-photo-9750382.jpeg?auto=compress&cs=tinysrgb&h=650&w=940",
        "medium": "https://images.pexels.com/photos/9750382/pexels-photo-9750382.jpeg?auto=compress&cs=tinysrgb&h=350",
        "small": "https://images.pexels.com/photos/9750382/pexels-photo-9750382.jpeg?auto=compress&cs=tinysrgb&h=130",
        "portrait": "https://images.pexels.com/photos/9750382/pexels-photo-9750382.jpeg?auto=compress&cs=tinysrgb&fit=crop&h=1200&w=800",
        "landscape": "https://images.pexels.com/photos/9750382/pexels-photo-9750382.jpeg?auto=compress&cs=tinysrgb&fit=crop&h=627&w=1200",
        "tiny": "https://images.pexels.com/photos/9750382/pexels-photo-9750382.jpeg?auto=compress&cs=tinysrgb&dpr=1&fit=crop&h=200&w=280"
      },
      "liked": false
    },
    {
      "id": 9758859,
      "width": 3024,
      "height": 4032,
      "url": "https://www.pexels.com/photo/close-up-of-ferns-with-drops-of-water-9758859/",
      "photographer": "Lisa",
      "photographer_url": "https://www.pexels.com/@fotios-photos",
      "photographer_id": 26735,
      "avg_color": "#244937",
      "src": {
        "original": "https://images.pexels.com/photos/9758859/pexels-photo-9758859.jpeg",
        "large2x": "https://images.pexels.com/photos/9758859/pexels-photo-9758859.jpeg?auto=compress&cs=tinysrgb&dpr=2&h=650&w=940",
        "large": "https://images.pexels.com/photos/9758859/pexels-photo-9758859.jpeg?auto=compress&cs=tinysrgb&h=650&w=940",
        "medium": "https://images.pexels.com/photos/9758859/pexels-photo-9758859.jpeg?auto=compress&cs=tinysrgb&h=350",
        "small": "https://images.pexels.com/photos/9758859/pexels-photo-9758859.jpeg?auto=compress&cs=tinysrgb&h=130",
        "portrait": "https://images.pexels.com/photos/9758859/pexels-photo-9758859.jpeg?auto=compress&cs=tinysrgb&fit=crop&h=1200&w=800",
        "landscape": "https://images.pexels.com/photos/9758859/pexels-photo-9758859.jpeg?auto=compress&cs=tinysrgb&fit=crop&h=627&w=1200",
        "tiny": "https://images.pexels.com/photos/9758859/pexels-photo-9758859.jpeg?auto=compress&cs=tinysrgb&dpr=1&fit=crop&h=200&w=280"
      },
      "liked": false
    },
    {
      "id": 9791813,
      "width": 3535,
      "height": 5302,
      "url": "https://www.pexels.com/photo/orange-and-green-pumpkins-on-ground-9791813/",
      "photographer": "Jonathan Cooper",
      "photographer_url": "https://www.pexels.com/@theshuttervision",
      "photographer_id": 82255355,
      "avg_color": "#916236",
      "src": {
        "original": "https://images.pexels.com/photos/9791813/pexels-photo-9791813.jpeg",
        "large2x": "https://images.pexels.com/photos/9791813/pexels-photo-9791813.jpeg?auto=compress&cs=tinysrgb&dpr=2&h=650&w=940",
        "large": "https://images.pexels.com/photos/9791813/pexels-photo-9791813.jpeg?auto=compress&cs=tinysrgb&h=650&w=940",
        "medium": "https://images.pexels.com/photos/9791813/pexels-photo-9791813.jpeg?auto=compress&cs=tinysrgb&h=350",
        "small": "https://images.pexels.com/photos/9791813/pexels-photo-9791813.jpeg?auto=compress&cs=tinysrgb&h=130",
        "portrait": "https://images.pexels.com/photos/9791813/pexels-photo-9791813.jpeg?auto=compress&cs=tinysrgb&fit=crop&h=1200&w=800",
        "landscape": "https://images.pexels.com/photos/9791813/pexels-photo-9791813.jpeg?auto=compress&cs=tinysrgb&fit=crop&h=627&w=1200",
        "tiny": "https://images.pexels.com/photos/9791813/pexels-photo-9791813.jpeg?auto=compress&cs=tinysrgb&dpr=1&fit=crop&h=200&w=280"
      },
      "liked": false
    },
    {
      "id": 9789972,
      "width": 3507,
      "height": 5261,
      "url": "https://www.pexels.com/photo/people-sitting-on-rock-near-body-of-water-9789972/",
      "photographer": "Paige Deasley",
      "photographer_url": "https://www.pexels.com/@paige-deasley-115813531",
      "photographer_id": 115813531,
      "avg_color": "#506872",
      "src": {
        "original": "https://images.pexels.com/photos/9789972/pexels-photo-9789972.jpeg",
        "large2x": "https://images.pexels.com/photos/9789972/pexels-photo-9789972.jpeg?auto=compress&cs=tinysrgb&dpr=2&h=650&w=940",
        "large": "https://images.pexels.com/photos/9789972/pexels-photo-9789972.jpeg?auto=compress&cs=tinysrgb&h=650&w=940",
        "medium": "https://images.pexels.com/photos/9789972/pexels-photo-9789972.jpeg?auto=compress&cs=tinysrgb&h=350",
        "small": "https://images.pexels.com/photos/9789972/pexels-photo-9789972.jpeg?auto=compress&cs=tinysrgb&h=130",
        "portrait": "https://images.pexels.com/photos/9789972/pexels-photo-9789972.jpeg?auto=compress&cs=tinysrgb&fit=crop&h=1200&w=800",
        "landscape": "https://images.pexels.com/photos/9789972/pexels-photo-9789972.jpeg?auto=compress&cs=tinysrgb&fit=crop&h=627&w=1200",
        "tiny": "https://images.pexels.com/photos/9789972/pexels-photo-9789972.jpeg?auto=compress&cs=tinysrgb&dpr=1&fit=crop&h=200&w=280"
      },
      "liked": false
    },
    {
      "id": 9789570,
      "width": 2667,
      "height": 4000,
      "url": "https://www.pexels.com/photo/city-skyline-under-blue-sky-9789570/",
      "photographer": "Sean Kernerman",
      "photographer_url": "https://www.pexels.com/@losterah",
      "photographer_id": 111615584,
      "avg_color": "#6F818D",
      "src": {
        "original": "https://images.pexels.com/photos/9789570/pexels-photo-9789570.jpeg",
        "large2x": "https://images.pexels.com/photos/9789570/pexels-photo-9789570.jpeg?auto=compress&cs=tinysrgb&dpr=2&h=650&w=940",
        "large": "https://images.pexels.com/photos/9789570/pexels-photo-9789570.jpeg?auto=compress&cs=tinysrgb&h=650&w=940",
        "medium": "https://images.pexels.com/photos/9789570/pexels-photo-9789570.jpeg?auto=compress&cs=tinysrgb&h=350",
        "small": "https://images.pexels.com/photos/9789570/pexels-photo-9789570.jpeg?auto=compress&cs=tinysrgb&h=130",
        "portrait": "https://images.pexels.com/photos/9789570/pexels-photo-9789570.jpeg?auto=compress&cs=tinysrgb&fit=crop&h=1200&w=800",
        "landscape": "https://images.pexels.com/photos/9789570/pexels-photo-9789570.jpeg?auto=compress&cs=tinysrgb&fit=crop&h=627&w=1200",
        "tiny": "https://images.pexels.com/photos/9789570/pexels-photo-9789570.jpeg?auto=compress&cs=tinysrgb&dpr=1&fit=crop&h=200&w=280"
      },
      "liked": false
    },
    {
      "id": 9785779,
      "width": 5184,
      "height": 3456,
      "url": "https://www.pexels.com/photo/green-and-red-leaves-in-close-up-photography-9785779/",
      "photographer": "Marta Dzedyshko",
      "photographer_url": "https://www.pexels.com/@marta-dzedyshko-1042863",
      "photographer_id": 1042863,
      "avg_color": "#162022",
      "src": {
        "original": "https://images.pexels.com/photos/9785779/pexels-photo-9785779.jpeg",
        "large2x": "https://images.pexels.com/photos/9785779/pexels-photo-9785779.jpeg?auto=compress&cs=tinysrgb&dpr=2&h=650&w=940",
        "large": "https://images.pexels.com/photos/9785779/pexels-photo-9785779.jpeg?auto=compress&cs=tinysrgb&h=650&w=940",
        "medium": "https://images.pexels.com/photos/9785779/pexels-photo-9785779.jpeg?auto=compress&cs=tinysrgb&h=350",
        "small": "https://images.pexels.com/photos/9785779/pexels-photo-9785779.jpeg?auto=compress&cs=tinysrgb&h=130",
        "portrait": "https://images.pexels.com/photos/9785779/pexels-photo-9785779.jpeg?auto=compress&cs=tinysrgb&fit=crop&h=1200&w=800",
        "landscape": "https://images.pexels.com/photos/9785779/pexels-photo-9785779.jpeg?auto=compress&cs=tinysrgb&fit=crop&h=627&w=1200",
        "tiny": "https://images.pexels.com/photos/9785779/pexels-photo-9785779.jpeg?auto=compress&cs=tinysrgb&dpr=1&fit=crop&h=200&w=280"
      },
      "liked": false
    },
    {
      "id": 9784197,
      "width": 4160,
      "height": 6240,
      "url": "https://www.pexels.com/photo/green-and-red-plant-on-white-concrete-building-9784197/",
      "photographer": "Mathias P.R. Reding",
      "photographer_url": "https://www.pexels.com/@matreding",
      "photographer_id": 2848684,
      "avg_color": "#A99886",
      "src": {
        "original": "https://images.pexels.com/photos/9784197/pexels-photo-9784197.jpeg",
        "large2x": "https://images.pexels.com/photos/9784197/pexels-photo-9784197.jpeg?auto=compress&cs=tinysrgb&dpr=2&h=650&w=940",
        "large": "https://images.pexels.com/photos/9784197/pexels-photo-9784197.jpeg?auto=compress&cs=tinysrgb&h=650&w=940",
        "medium": "https://images.pexels.com/photos/9784197/pexels-photo-9784197.jpeg?auto=compress&cs=tinysrgb&h=350",
        "small": "https://images.pexels.com/photos/9784197/pexels-photo-9784197.jpeg?auto=compress&cs=tinysrgb&h=130",
        "portrait": "https://images.pexels.com/photos/9784197/pexels-photo-9784197.jpeg?auto=compress&cs=tinysrgb&fit=crop&h=1200&w=800",
        "landscape": "https://images.pexels.com/photos/9784197/pexels-photo-9784197.jpeg?auto=compress&cs=tinysrgb&fit=crop&h=627&w=1200",
        "tiny": "https://images.pexels.com/photos/9784197/pexels-photo-9784197.jpeg?auto=compress&cs=tinysrgb&dpr=1&fit=crop&h=200&w=280"
      },
      "liked": false
    }
  ],
  "total_results": 8000,
  "next_page": "https://api.pexels.com/v1/curated/?page=2&per_page=10"
}